plotdap • plotdap
…
Adding tabledap() layers

The add_tabledap() function allows you to add markers that encode variable(s) obtained via tabledap() to an existing plotdap() object. For example, suppose we have the following sardines data, and wish to understand the frequency of subsample counts:

sardines <- tabledap(
  'FRDCPSTrawlLHHaulCatch',
  fields = c('latitude',  'longitude', 'time', 'scientific_name', 'subsample_count'),
  'time>=2010-01-01', 'time<=2012-01-01', 'scientific_name="Sardinops sagax"'
)
sardines
#> <ERDDAP tabledap> FRDCPSTrawlLHHaulCatch
#>    Path: [/Users/cpsievert/Library/Caches/R/rerddap/8cb244e059b86865b7933a3d9b72fe16.csv]
#>    Last updated: [2017-06-08 10:41:14]
#>    File size:    [0 mb]
#> # A tibble: 56 x 5
#>    latitude longitude                 time scientific_name subsample_count
#>  *    <chr>     <chr>                <chr>           <chr>           <int>
#>  1  38.1945   -124.07 2010-04-16T03:36:00Z Sardinops sagax              50
#>  2   37.609 -123.6561 2010-04-18T02:54:00Z Sardinops sagax              38
#>  3  37.4188 -123.3463 2010-04-18T10:48:00Z Sardinops sagax               1
#>  4   36.984 -123.3326 2010-04-19T03:27:00Z Sardinops sagax              50
#>  5  36.8118 -123.6868 2010-04-19T06:42:00Z Sardinops sagax              50
#>  6  36.7333 -123.8675 2010-04-19T09:55:00Z Sardinops sagax              50
#>  7   35.922 -124.7985 2010-04-20T07:21:00Z Sardinops sagax              39
#>  8   36.992 -123.7716 2010-04-27T02:56:00Z Sardinops sagax               2
#>  9  36.9725 -124.1091 2010-04-27T07:02:00Z Sardinops sagax               9
#> 10  36.9925 -124.3968 2010-04-27T10:04:00Z Sardinops sagax              50
#> # ... with 46 more rows
…
murSST <- griddap(
  'jplMURSST41', latitude = c(22, 51), longitude = c(-140, -105),
  time = c('last', 'last'), fields = 'analysed_sst'
)
murSST
#> <ERDDAP griddap> jplMURSST41
#>    Path: [/Users/cpsievert/Library/Caches/R/rerddap/5d5022a6daf4b9e7957e864f84600bbf.nc]
#>    Last updated: [2017-06-08 10:57:49]
#>    File size:    [81.28 mb]
#>    Dimensions (dims/vars):   [3 X 1]
#>    Dim names: time, latitude, longitude
#>    Variable names: Analysed Sea Surface Temperature
#>    data.frame (rows/columns):   [10156401 X 4]
#> # A tibble: 10,156,401 x 4
#>                    time   lat     lon analysed_sst
#>                   <chr> <dbl>   <dbl>        <dbl>
#>  1 2017-06-06T09:00:00Z    22 -140.00       23.667
#>  2 2017-06-06T09:00:00Z    22 -139.99       23.675
#>  3 2017-06-06T09:00:00Z    22 -139.98       23.676
#>  4 2017-06-06T09:00:00Z    22 -139.97       23.674
#>  5 2017-06-06T09:00:00Z    22 -139.96       23.670
#>  6 2017-06-06T09:00:00Z    22 -139.95       23.670
#>  7 2017-06-06T09:00:00Z    22 -139.94       23.677
#>  8 2017-06-06T09:00:00Z    22 -139.93       23.688
#>  9 2017-06-06T09:00:00Z    22 -139.92       23.701
#> 10 2017-06-06T09:00:00Z    22 -139.91       23.714
#> # ... with 10,156,391 more rows
…
